{
  "name": "indicators",
  "base": "PersistedModel",
  "idInjection": false,
  "options": {
    "validateUpsert": true
  },
  "properties": {
    "actor": {
      "type": "string"
    },
    "userId": {
      "type": "string"
    },
    "videoId": {
      "type": "string"
    },
    "type": {
      "type": "string",
      "required": true
    },
    "reason": {
      "type": "string"
    },
    "time_stamp": {
      "type": "date"
    }
  },
  "validations": [],
  "relations": {},
  "acls": [
    {
      "accessType": "*",
      "principalType": "ROLE",
      "principalId": "$unauthenticated",
      "permission": "DENY"
    }
  ],
  "methods": {}
}